{
  "imports": {
    "fmt/": "https://deno.land/std@0.104.0/fmt/",
    "oak": "https://deno.land/x/oak/mod.ts",
    "esbuild": "https://deno.land/x/esbuild",
    "react": "https://dev.jspm.io/react@17.0.2",
    "react-dom": "https://dev.jspm.io/react-dom@17.0.2",
    "react-dom-server": "https://dev.jspm.io/react-dom@17.0.2/server",
    "react-router-dom": "https://dev.jspm.io/react-router-dom@5.2.0",
    "/": "./",
    "./": "./"
  }
}
